<?xml version="1.0" encoding="utf-8"?>
<svg xmlns="http://www.w3.org/2000/svg" xmlns:xlink="http://www.w3.org/1999/xlink" style="margin: auto; background: none; display: block; shape-rendering: auto;" width="200px" height="200px" viewBox="0 0 100 100" preserveAspectRatio="xMidYMid">
<g transform="translate(82,50)">
<g transform="rotate(0)">
<circle cx="0" cy="0" r="8" fill="#000000" fill-opacity="1">
  <animateTransform attributeName="transform" type="scale" begin="-0.8888888888888888s" values="1.46 1.46;1 1" keyTimes="0;1" dur="1s" repeatCount="indefinite"></animateTransform>
  <animate attributeName="fill-opacity" keyTimes="0;1" dur="1s" repeatCount="indefinite" values="1;0" begin="-0.8888888888888888s"></animate>
</circle>
</g>
</g><g transform="translate(74.51342217980729,70.56920350996926)">
<g transform="rotate(40)">
<circle cx="0" cy="0" r="8" fill="#000000" fill-opacity="0.8888888888888888">
  <animateTransform attributeName="transform" type="scale" begin="-0.7777777777777778s" values="1.46 1.46;1 1" keyTimes="0;1" dur="1s" repeatCount="indefinite"></animateTransform>
  <animate attributeName="fill-opacity" keyTimes="0;1" dur="1s" repeatCount="indefinite" values="1;0" begin="-0.7777777777777778s"></animate>
</circle>
</g>
</g><g transform="translate(55.55674168534178,81.51384809639066)">
<g transform="rotate(80)">
<circle cx="0" cy="0" r="8" fill="#000000" fill-opacity="0.7777777777777778">
  <animateTransform attributeName="transform" type="scale" begin="-0.6666666666666666s" values="1.46 1.46;1 1" keyTimes="0;1" dur="1s" repeatCount="indefinite"></animateTransform>
  <animate attributeName="fill-opacity" keyTimes="0;1" dur="1s" repeatCount="indefinite" values="1;0" begin="-0.6666666666666666s"></animate>
</circle>
</g>
</g><g transform="translate(34.00000000000001,77.71281292110204)">
<g transform="rotate(119.99999999999999)">
<circle cx="0" cy="0" r="8" fill="#000000" fill-opacity="0.6666666666666666">
  <animateTransform attributeName="transform" type="scale" begin="-0.5555555555555556s" values="1.46 1.46;1 1" keyTimes="0;1" dur="1s" repeatCount="indefinite"></animateTransform>
  <animate attributeName="fill-opacity" keyTimes="0;1" dur="1s" repeatCount="indefinite" values="1;0" begin="-0.5555555555555556s"></animate>
</circle>
</g>
</g><g transform="translate(19.929836134850934,60.944644586421404)">
<g transform="rotate(160)">
<circle cx="0" cy="0" r="8" fill="#000000" fill-opacity="0.5555555555555556">
  <animateTransform attributeName="transform" type="scale" begin="-0.4444444444444444s" values="1.46 1.46;1 1" keyTimes="0;1" dur="1s" repeatCount="indefinite"></animateTransform>
  <animate attributeName="fill-opacity" keyTimes="0;1" dur="1s" repeatCount="indefinite" values="1;0" begin="-0.4444444444444444s"></animate>
</circle>
</g>
</g><g transform="translate(19.92983613485093,39.0553554135786)">
<g transform="rotate(200)">
<circle cx="0" cy="0" r="8" fill="#000000" fill-opacity="0.4444444444444444">
  <animateTransform attributeName="transform" type="scale" begin="-0.3333333333333333s" values="1.46 1.46;1 1" keyTimes="0;1" dur="1s" repeatCount="indefinite"></animateTransform>
  <animate attributeName="fill-opacity" keyTimes="0;1" dur="1s" repeatCount="indefinite" values="1;0" begin="-0.3333333333333333s"></animate>
</circle>
</g>
</g><g transform="translate(33.999999999999986,22.287187078897972)">
<g transform="rotate(239.99999999999997)">
<circle cx="0" cy="0" r="8" fill="#000000" fill-opacity="0.3333333333333333">
  <animateTransform attributeName="transform" type="scale" begin="-0.2222222222222222s" values="1.46 1.46;1 1" keyTimes="0;1" dur="1s" repeatCount="indefinite"></animateTransform>
  <animate attributeName="fill-opacity" keyTimes="0;1" dur="1s" repeatCount="indefinite" values="1;0" begin="-0.2222222222222222s"></animate>
</circle>
</g>
</g><g transform="translate(55.55674168534176,18.48615190360934)">
<g transform="rotate(280)">
<circle cx="0" cy="0" r="8" fill="#000000" fill-opacity="0.2222222222222222">
  <animateTransform attributeName="transform" type="scale" begin="-0.1111111111111111s" values="1.46 1.46;1 1" keyTimes="0;1" dur="1s" repeatCount="indefinite"></animateTransform>
  <animate attributeName="fill-opacity" keyTimes="0;1" dur="1s" repeatCount="indefinite" values="1;0" begin="-0.1111111111111111s"></animate>
</circle>
</g>
</g><g transform="translate(74.51342217980729,29.430796490030733)">
<g transform="rotate(320)">
<circle cx="0" cy="0" r="8" fill="#000000" fill-opacity="0.1111111111111111">
  <animateTransform attributeName="transform" type="scale" begin="0s" values="1.46 1.46;1 1" keyTimes="0;1" dur="1s" repeatCount="indefinite"></animateTransform>
  <animate attributeName="fill-opacity" keyTimes="0;1" dur="1s" repeatCount="indefinite" values="1;0" begin="0s"></animate>
</circle>
</g>
</g>
<!-- [ldio] generated by https://loading.io/ --></svg>